<?xml version="1.0" encoding="UTF-8"?>
<CustomTab xmlns="http://soap.sforce.com/2006/04/metadata">
    <description>Criado pelo Criador de aplicativo Lightning</description>
    <flexiPage>MyData</flexiPage>
    <label>MyData</label>
    <motif>Custom29: PDA</motif>
</CustomTab>
